{
    "smcfonts": [
        {
            "title": "AnjaliOldLipi",
            "path": "/fonts/anjalioldlipi",
            "download": "/downloads/fonts/anjalioldlipi/anjalioldlipi.zip",
            "description": "Designed by Kevin Siji, optimized for body text. Available in single weight.",
            "sample": "കഞ്ജബാണദൂതിയായ് നിന്നരികിലെത്തി ചഞ്ചലേ നിൻ വിപഞ്ചിക തൊട്ടുണർത്തി"
        },
        {
            "title": "Chilanka",
            "path": "/fonts/chilanka",
            "download": "/downloads/fonts/chilanka/chilanka.zip",
            "description": "Handwriting style font designed by Santhosh Thottingal.",
            "sample": "കഞ്ജബാണദൂതിയായ് നിന്നരികിലെത്തി ചഞ്ചലേ നിൻ വിപഞ്ചിക തൊട്ടുണർത്തി"
        },
        {
            "title": "Dyuthi",
            "path": "/fonts/dyuthi",
            "download": "/downloads/fonts/dyuthi/dyuthi.zip",
            "description": "Display style font designed by Hiran Venugopal",
            "sample": "കഞ്ജബാണദൂതിയായ് നിന്നരികിലെത്തി ചഞ്ചലേ നിൻ വിപഞ്ചിക തൊട്ടുണർത്തി"
        },
        {
            "title": "Gayathri",
            "path": "/fonts/gayathri",
            "download": "/downloads/fonts/gayathri/gayathri.zip",
            "description": "Suitable for display and body text. Designed by Binoy Dominic. Available in Regular, Thin, Bold weights",
            "sample": "കഞ്ജബാണദൂതിയായ് നിന്നരികിലെത്തി ചഞ്ചലേ നിൻ വിപഞ്ചിക തൊട്ടുണർത്തി"
        },
        {
            "title": "Karumbi",
            "path": "/fonts/karumbi",
            "badge": "Unmaintained",
            "download": "/downloads/fonts/karumbi/karumbi.zip",
            "description": "Handwriting style font designed by Kevin Siji",
            "sample": "കഞ്ജബാണദൂതിയായ് നിന്നരികിലെത്തി ചഞ്ചലേ നിൻ വിപഞ്ചിക തൊട്ടുണർത്തി"
        },
        {
            "title": "Keraleeyam",
            "path": "/fonts/keraleeyam",
            "download": "/downloads/fonts/keraleeyam/keraleeyam.zip",
            "badge": "Unmaintained",
            "description": "Display style font designed by Hussain K H",
            "sample": "കഞ്ജബാണദൂതിയായ് നിന്നരികിലെത്തി ചഞ്ചലേ നിൻ വിപഞ്ചിക തൊട്ടുണർത്തി"
        },
        {
            "title": "Malini",
            "path": "/fonts/malini",
            "download": "/downloads/fonts/malini/malini.zip",
            "description": "Variable typeface designed by Santhosh Thottingal. First Malayalam font with optical sizing. Suitable for text and display.",
            "badge": "Pre-release",
            "sample": "കഞ്ജബാണദൂതിയായ് നിന്നരികിലെത്തി ചഞ്ചലേ നിൻ വിപഞ്ചിക തൊട്ടുണർത്തി"
        },
        {
            "title": "Manjari",
            "path": "/fonts/manjari",
            "download": "/downloads/fonts/manjari/manjari.zip",
            "description": "Typeface designed by Santhosh Thottingal. Available in Regular, Thin, Bold weights.",
            "sample": "കഞ്ജബാണദൂതിയായ് നിന്നരികിലെത്തി ചഞ്ചലേ നിൻ വിപഞ്ചിക തൊട്ടുണർത്തി"
        },
        {
            "title": "Meera",
            "path": "/fonts/meera",
            "download": "/downloads/fonts/meera/meera.zip",
            "badge": "Unmaintained",
            "description": "Typeface designed by Hussain K H. Available in single weight, suitable for body text",
            "sample": "കഞ്ജബാണദൂതിയായ് നിന്നരികിലെത്തി ചഞ്ചലേ നിൻ വിപഞ്ചിക തൊട്ടുണർത്തി"
        },
        {
            "title": "Nupuram",
            "path": "/fonts/nupuram",
            "download": "/downloads/fonts/nupuram/Nupuram.zip",
            "description": "Variable typeface designed by Santhosh Thottingal. Suitable for display and text.",
            "badge": "Pre-release",
            "sample": "കഞ്ജബാണദൂതിയായ് നിന്നരികിലെത്തി ചഞ്ചലേ നിൻ വിപഞ്ചിക തൊട്ടുണർത്തി"
        },
        {
            "title": "NupuramColor",
            "path": "/fonts/nupuram-color",
            "download": "/downloads/fonts/nupuram/Nupuram-Color.zip",
            "description": "Variable color typeface designed by Santhosh Thottingal",
            "badge": "Pre-release",
            "sample": "കഞ്ജബാണദൂതിയായ് നിന്നരികിലെത്തി ചഞ്ചലേ നിൻ വിപഞ്ചിക തൊട്ടുണർത്തി"
        },
        {
            "title": "NupuramCalligraphy",
            "path": "/fonts/nupuram-calligraphy",
            "download": "/downloads/fonts/nupuram/Nupuram-Calligraphy.zip",
            "description": "Variable calligraphy style typeface designed by Santhosh Thottingal",
            "badge": "Pre-release",
            "sample": "കഞ്ജബാണദൂതിയായ് നിന്നരികിലെത്തി ചഞ്ചലേ നിൻ വിപഞ്ചിക തൊട്ടുണർത്തി"
        },
        {
            "title": "NupuramDots",
            "path": "/fonts/nupuram-dots",
            "download": "/downloads/fonts/nupuram/Nupuram-Dots.zip",
            "description": "Educational typeface designed by Santhosh Thottingal",
            "badge": "Pre-release",
            "sample": "കഞ്ജബാണദൂതിയായ് നിന്നരികിലെത്തി ചഞ്ചലേ നിൻ വിപഞ്ചിക തൊട്ടുണർത്തി"
        },
        {
            "title": "NupuramArrowsColor",
            "path": "/fonts/nupuram-arrows-color",
            "description": "Educational color typeface designed by Santhosh Thottingal",
            "download": "/downloads/fonts/nupuram/Nupuram-Arrows-Color.zip",
            "badge": "Pre-release"
        },
        {
            "title": "Rachana",
            "path": "/fonts/rachana",
            "badge": "Unmaintained",
            "download": "/downloads/fonts/rachana/rachana.zip",
            "description": "Text typeface designed by Hussain K.H. Features stroke modulation similar to serif style",
            "sample": "കഞ്ജബാണദൂതിയായ് നിന്നരികിലെത്തി ചഞ്ചലേ നിൻ വിപഞ്ചിക തൊട്ടുണർത്തി"
        },
        {
            "title": "RaghuMalayalamSans",
            "path": "/fonts/raghumalayalamsans",
            "badge": "Unmaintained",
            "download": "/downloads/fonts/raghumalayalamsans/raghumalayalamsans.zip",
            "description": "Typeface designed by R K Joshi",
            "sample": "കഞ്ജബാണദൂതിയായ് നിന്നരികിലെത്തി ചഞ്ചലേ നിൻ വിപഞ്ചിക തൊട്ടുണർത്തി"
        },
        {
            "title": "Suruma",
            "path": "/fonts/suruma",
            "badge": "Unmaintained",
            "download": "/downloads/fonts/suruma/suruma.zip",
            "description": "Typeface designed by Suresh P",
            "sample": "കഞ്ജബാണദൂതിയായ് നിന്നരികിലെത്തി ചഞ്ചലേ നിൻ വിപഞ്ചിക തൊട്ടുണർത്തി"
        },
        {
            "title": "Uroob",
            "path": "/fonts/uroob",
            "badge": "Unmaintained",
            "download": "/downloads/fonts/uroob/uroob.zip",
            "description": "Display typeface designed by Hussain K H",
            "sample": "കഞ്ജബാണദൂതിയായ് നിന്നരികിലെത്തി ചഞ്ചലേ നിൻ വിപഞ്ചിക തൊട്ടുണർത്തി"
        }
    ],
    "externalfonts": [
        {
            "link": "https://www.google.com/get/noto/",
            "title": "Noto Sans Malayalam by Google"
        },
        {
            "link": "https://fonts.google.com/specimen/Baloo+Chettan+2?subset=malayalam",
            "title": "Baloo Chettan 2 by Ek Type, commissioned by Google fonts."
        },
        {
            "link": "https://github.com/EkType/Anek",
            "title": "Anek Malayalam by Ek Type"
        },
        {
            "link": "http://rachana.org.in/",
            "title": "Sundar, TNJoy, Ezhuthu, Panmana, Karuna etc by Rachana Institute of Typography"
        }
    ]
}