{
    "sitename": "Swathanthra Malayalam Computing",
    "domain": "https: //smc.org.in",
    "languages": [
        {
            "code": "en",
            "name": "English"
        },
        {
            "code": "ml",
            "name": "മലയാളം"
        }
    ],
    "nav": [
        {
            "link": "fonts",
            "label": "Fonts"
        },
        {
            "link": "projects",
            "label": "Projects"
        },
        {
            "link": "blog",
            "label": "Blog"
        },
        {
            "link": "articles",
            "label": "Articles"
        },
        {
            "link": "research",
            "label": "Research"

        },
        {
            "link": "about",
            "label": "About"
        }
    ],
    "socialmedialinks": [
        {
            "name": "gitlab",
            "title": "GitLab",
            "url": "https://gitlab.com/smc"
        },
        {
            "name": "github",
            "title": "Github",
            "url": "https://github.com/smc"
        },
        {
            "name": "telegram",
            "title": "Telegram",
            "url": "https://t.me/smc_project"
        },
        {
            "name": "facebook",
            "title": "Facebook",
            "url": "https://facebook.com/smcproject"
        },
        {
            "name": "instagram",
            "title": "Instagram",
            "url": "https://instagram.com/smcproject"
        },
        {
            "name": "twitter",
            "title": "Twitter",
            "url": "https://twitter.com/smcproject"
        },
        {
            "name": "discourse",
            "title": "Discussions",
            "url": "https://community.smc.org.in"
        },
        {
            "name": "mastodon",
            "title": "Mastodon",
            "url": "https://floss.social/@smc"
        },
        {
            "name": "matrix",
            "title": "matrix",
            "url": "https://matrix.to/#/#smc-project:matrix.org"
        },
        {
            "name": "irc",
            "title": "IRC on freenode",
            "url": "https://webchat.freenode.net/?randomnick=0&channels=smc-project"
        }
    ],
    "blogs": "Blogs",
    "fonts": "Fonts",
    "projects": "Projects",
    "otherfonts": "Other fonts"
}